<svg width="40" height="40" viewBox="0 0 40 40" fill="none" xmlns="http://www.w3.org/2000/svg">
<mask id="mask0_34_732" style="mask-type:luminance" maskUnits="userSpaceOnUse" x="3" y="3" width="34" height="34">
<path d="M32.5 5H7.5C6.11929 5 5 6.11929 5 7.5V32.5C5 33.8807 6.11929 35 7.5 35H32.5C33.8807 35 35 33.8807 35 32.5V7.5C35 6.11929 33.8807 5 32.5 5Z" fill="white" stroke="white" stroke-width="4" stroke-linecap="round" stroke-linejoin="round"/>
<path d="M15.8333 15.8333C15.8333 13.1941 18.0558 11.6666 20 11.6666C21.9441 11.6666 24.1666 13.1941 24.1666 15.8333C24.1666 20.5833 15.8333 24.1108 15.8333 28.3333H24.1666" stroke="black" stroke-width="4" stroke-linecap="round" stroke-linejoin="round"/>
</mask>
<g mask="url(#mask0_34_732)">
<path d="M0 0H40V40H0V0Z" fill="black"/>
</g>
</svg>
